…
V and J usage can reflect both recombination biases and antigen-driven
selection.

``` r
vUsageDF <- cdr3TableDF %>%
  count(chain, v_gene, sort = TRUE) %>%
  group_by(chain) %>%
  slice_max(n, n = 12) %>%
  ungroup()

vUsageDF
```

    ## # A tibble: 25 × 3
    ##    chain v_gene           n
    ##    <chr> <chr>        <int>
    ##  1 TRA   TRAV24        1580
    ##  2 TRA   TRAV41         384
    ##  3 TRA   TRAV8-6        239
    ##  4 TRA   TRAV3          221
    ##  5 TRA   TRAV38-2/DV8   153
    ##  6 TRA   TRAV21          31
    ##  7 TRA   TRAV35          21
    ##  8 TRA   TRAV2           11
    ##  9 TRA   TRAV12-3         7
    ## 10 TRA   TRAV19           6
    ## # ℹ 15 more rows
…
    ## Rows: 1724 Columns: 7
    ## ── Column specification ─────────────────────────────────
    ## Delimiter: "\t"
    ## chr (5): trimmed_input_sequence, match_sequence, epitope, antigen, organism
    ## dbl (2): score, receptor_group
    ## 
    ## ℹ Use `spec()` to retrieve the full column specification for this data.
    ## ℹ Specify the column types or set `show_col_types = FALSE` to quiet this message.

``` r
iedbRes %>% filter(grepl(pattern = "GILGFVFTL", epitope)) %>%
  arrange(desc(score))
```

    ## # A tibble: 139 × 7
    ##    trimmed_input_sequence match_sequence score receptor_group epitope    antigen
    ##    <chr>                  <chr>          <dbl>          <dbl> <chr>      <chr>  
    ##  1 ASSSANYGYT             ASSSANYGYT     1              34645 NLVPMVATV… HCMVUL…
    ##  2 ASSSAHYGYT             ASSSANYGYT     0.955          34645 NLVPMVATV… HCMVUL…
    ##  3 ASSSANYGYT             ASSDSNYGYT     0.949          80577 GILGFVFTL… Matrix…
    ##  4 ASSSANYGYT             ASSTGNYGYT     0.947          17002 GILGFVFTL… Matrix…
    ##  5 ASSSANYGYT             ASSSGSYGYT     0.946          57072 GILGFVFTL… Matrix…
    ##  6 ASSSANYGYT             ASSSGTYGYT     0.939          17392 GILGFVFTL… Matrix…
    ##  7 ASSSANYGYT             ASSSGAYGYT     0.938          15743 GILGFVFTL  Matrix…
    ##  8 ASSSANYGYT             ASSAGSYGYT     0.937          39285 GILGFVFTL… Matrix…
    ##  9 ASSSANYGYT             ASSQGNYGYT     0.934         199327 GILGFVFTL… Matrix…
    ## 10 ASSSANYGYT             ASSTGSYGYT     0.933         188816 GILGFVFTL… Matrix…
    ## # ℹ 129 more rows
    ## # ℹ 1 more variable: organism <chr>

``` r
filter(topTrbCdr3DF, grepl(pattern = "ASSSANYGYT", cdr3))
```

    ##   raw_clonotype_id         cdr3   v_gene  j_gene n
    ## 1      clonotype18 CASSSANYGYTF TRBV12-4 TRBJ1-2 1

``` r
iedbRes %>% filter(grepl(pattern = "TPRVTGGGAM", epitope)) %>%
  arrange(desc(score))
```

    ## # A tibble: 21 × 7
    ##    trimmed_input_sequence match_sequence score receptor_group epitope    antigen
    ##    <chr>                  <chr>          <dbl>          <dbl> <chr>      <chr>  
    ##  1 ASSGLAGLLETQY          ASSSLAGVLETQY  0.948          22512 LPRRSGAAG… nucleo…
    ##  2 ASLYGGGGNEQF           ASSYGGGGDEQF   0.936          23209 LPRRSGAAG… nucleo…
    ##  3 ASLYGGGGNEQF           ASSYGGGGDEQF   0.936          23209 LPRRSGAAG… nucleo…
    ##  4 ASLYGGGGNEQF           ASSYGGGGDEQF   0.936          23209 LPRRSGAAG… nucleo…
    ##  5 ASSSANYGYT             ASSSGYGYT      0.930          22501 LPRRSGAAG… nucleo…
    ##  6 ASSSANYGYT             ASSSGQNYGYT    0.924          22418 LLLDRLNQL… Nucleo…
    ##  7 ASSSAHYGYT             ASSSGYGYT      0.917          22501 LPRRSGAAG… nucleo…
    ##  8 ASLYGGGGNEQF           ASSYGGGGYEQF   0.915          21218 LPRRSGAAG… nucleo…
    ##  9 ASLYGGGGNEQF           ASSYGGGGYEQF   0.915          21218 LPRRSGAAG… nucleo…
    ## 10 ASLYGGGGNEQF           ASSYGGGGYEQF   0.915          21218 LPRRSGAAG… nucleo…
    ## # ℹ 11 more rows
    ## # ℹ 1 more variable: organism <chr>
…
